epoch,loss,lr,val_loss
0,0.06451176763176918,0.001,0.06275318419933319
1,0.0630464437186718,0.001,0.06289692497253419
2,0.06302548009157181,0.001,0.06283167918920517
3,0.06299965173959732,0.001,0.06289121825695038
4,0.06298169715642929,0.001,0.06272352199554443
5,0.06295985820293426,0.001,0.06275426425933837
6,0.06294329929828643,0.001,0.062772421002388
7,0.06293589007735252,0.001,0.06275884029865265
8,0.06299221002578735,0.001,0.06293537038564682
9,0.06295351386070251,0.001,0.06276938771009445
10,0.06289514449596405,0.001,0.06270966266393661
11,0.0628963979458809,0.001,0.0626638066291809
12,0.06287391411542892,0.001,0.0627189410686493
13,0.06287888944149017,0.001,0.06263288323879242
14,0.06287347035884858,0.001,0.0626128188252449
15,0.06287320263624191,0.001,0.0626815663099289
16,0.06288687960386276,0.001,0.06276168894767761
17,0.06289460104942322,0.001,0.06266360323429107
18,0.06287977756142617,0.001,0.06265974482297898
19,0.06288703946590424,0.001,0.06277881036996841
20,0.06288646716594697,0.001,0.062566412627697
21,0.0628493967461586,0.001,0.0626157085776329
22,0.0628554041838646,0.001,0.06266362463235856
23,0.06288225158691406,0.001,0.06264692749977112
24,0.06286233857870102,0.001,0.06275509572029114
25,0.06288812027335167,0.001,0.06255403152704239
26,0.06284227526903152,0.001,0.06258713595867157
27,0.062858802806139,0.001,0.06263916840553284
28,0.06288632411241532,0.001,0.06261488453149795
29,0.06285266380786896,0.001,0.06271845903396607
30,0.06284411020040512,0.001,0.06267148162126542
31,0.06282657188892364,0.001,0.0626194818854332
32,0.06282411983966828,0.001,0.06258178609609603
33,0.06283765718698502,0.001,0.06259669387340545
34,0.06283836360573769,0.001,0.06261409386396408
35,0.06282289938211441,0.001,0.06261269329786301
36,0.06286893340945243,0.001,0.06250735024213791
37,0.06283632395029068,0.001,0.0626218630194664
38,0.06282840462327004,0.001,0.06255431221723556
39,0.0628170116686821,0.001,0.06274980870485306
40,0.06292296768903732,0.001,0.06269631065130234
41,0.06288120561242104,0.001,0.06261659755706787
42,0.06286752160072327,0.001,0.06284983237981796
43,0.062877314016819,0.001,0.06264745153188706
44,0.06287158583164215,0.001,0.0626514596581459
45,0.06282997990846634,0.001,0.06260807489156724
46,0.06286593014240265,0.001,0.06272466417551041
47,0.0628274530005455,0.001,0.0628569620013237
48,0.06284509984493256,0.001,0.06263183569908141
49,0.06283374248027801,0.001,0.06276482667922974
50,0.0628638761138916,0.001,0.0626158277630806
51,0.06285057770252228,0.001,0.06263703894615173
52,0.06285275702953338,0.001,0.0625351846575737
53,0.06282580614209175,0.001,0.06289671825170517
54,0.06285911757588386,0.001,0.0624959981918335
55,0.06283198834180832,0.001,0.06252121518850326
56,0.06281963043570518,0.001,0.06272405625581741
57,0.06285940643787384,0.001,0.06274242342710495
58,0.06284782420396805,0.001,0.06257840487957
59,0.06283838933467865,0.001,0.06275985543727874
60,0.06282183210849762,0.001,0.06252124963998795
61,0.06283074339985847,0.001,0.06263135459423065
62,0.06282723509073257,0.001,0.06274601782560349
63,0.06286818724632263,0.001,0.06262779015302658
64,0.06286529737472535,0.001,0.06273222074508666
65,0.06283424247026444,0.001,0.06285471065044403
66,0.06281727009773254,0.001,0.06252929443120957
67,0.06281380558252335,0.001,0.06251720943450928
68,0.06288162344336509,0.001,0.06269201284646989
69,0.06284637655973434,0.001,0.06320401269197463
70,0.06286337202310562,0.001,0.06256527259349823
71,0.06286580785751343,0.001,0.06266371921300888
72,0.06285907539606095,0.001,0.06256076411008835
73,0.06281717577934265,0.001,0.06275262005329132
74,0.0628442662858963,0.001,0.06257930541038513
75,0.06285010172605515,0.001,0.06260498076677322
76,0.0628540811753273,0.001,0.06252602214813233
77,0.06287516185998916,0.001,0.06258921489715576
78,0.06288403081655503,0.001,0.06272527440786362
79,0.06280386365532875,0.001,0.06254556838274002
80,0.0628490282857418,0.001,0.06303575284481049
81,0.06286814899682999,0.001,0.06258819781541825
82,0.06289041242361068,0.001,0.0625881588101387
83,0.06283167756080628,0.001,0.06259679542779922
84,0.06280430764436722,0.001,0.06297712296247482
85,0.06286202554702759,0.001,0.06259240274429322
86,0.06285295528888703,0.001,0.06259236030578613
87,0.06285893294572831,0.001,0.06278967080116273
88,0.06283378841400146,0.001,0.06255499687194824
89,0.06292191161394119,0.001,0.06285153188705445
90,0.06297053944349289,0.001,0.06270403708219528
91,0.06291490091562271,0.001,0.06278130555152893
92,0.06289019987344742,0.001,0.06269306534528732
93,0.06290381796121597,0.001,0.06265793451070785
94,0.06288522205591202,0.001,0.0631119910478592
95,0.06289741181135178,0.001,0.06269806488752365
96,0.06285399661064148,0.001,0.06299196988344193
97,0.06283644234180451,0.001,0.06272972676753998
98,0.06285743165493012,0.001,0.06271641966104508
99,0.06284460272312165,0.001,0.06270423990488053
100,0.06284722328543663,0.001,0.0626446527481079
101,0.06282425763130188,0.001,0.06271838122606277
102,0.06285198586821555,0.001,0.06262862906455993
103,0.0628233739066124,0.001,0.06268353435993194
104,0.06283751811504364,0.001,0.0626685610294342
105,0.06282698276281357,0.001,0.06255691648721695
106,0.06285619801998138,0.001,0.06263731541633606
107,0.06285935928106308,0.001,0.06260638071298599
108,0.06288750113010406,0.001,0.06273725675344467
109,0.06285823900699615,0.001,0.06255108441114425
110,0.06285230971574783,0.001,0.06267071832418442
111,0.06286808888435363,0.001,0.06274252054691315
112,0.06282246098637581,0.001,0.06264054359197617
113,0.06283959430932999,0.001,0.06264714038372039
114,0.06291426916956902,0.001,0.06260681347846984
115,0.06282634322047234,0.001,0.06260401889085769
116,0.0628301335310936,0.001,0.06266905627250671
117,0.06283431361913681,0.001,0.06270867792367935
118,0.06282821249485016,0.001,0.06254814950227737
119,0.06283560354709625,0.001,0.06253776575326919
120,0.06282538002729415,0.001,0.06273277555704117
121,0.06282615541934967,0.001,0.06259663797616959
122,0.0628403712785244,0.001,0.06271061713695526
123,0.06286419456243515,0.001,0.06275828462839127
124,0.06283487017035484,0.001,0.06251455138921738
125,0.0628336340022087,0.001,0.06258315887451171
126,0.06282785496830941,0.001,0.06257237392663956
127,0.06281834134578705,0.001,0.0626084280371666
128,0.06281709883928299,0.001,0.06264760609865189
129,0.06286085808038712,0.001,0.0626930196762085
130,0.06288218193173409,0.001,0.06261701084375382
131,0.06283676904797554,0.001,0.0627218270778656
132,0.06284763853788376,0.001,0.06267709105014801
133,0.062419901497364046,0.0005,0.06218855572938919
134,0.06240153005838394,0.0005,0.062166346347332
135,0.06243464650630951,0.0005,0.06216650787591934
136,0.06240300235748291,0.0005,0.06216671856641769
137,0.06242045992732048,0.0005,0.062245279812812804
138,0.06239992348909378,0.0005,0.06239297194480896
139,0.06240615822792053,0.0005,0.06213666979074478
140,0.062407309770584105,0.0005,0.06219326107501984
141,0.06242692066192627,0.0005,0.06219073905944824
142,0.06242194633245468,0.0005,0.062201011335849765
143,0.062420235657691954,0.0005,0.0622882635474205
144,0.06241090359926224,0.0005,0.06218862668275833
145,0.0624229930460453,0.0005,0.06217123786211014
146,0.06242003840446472,0.0005,0.062266808223724365
147,0.06243873168110847,0.0005,0.06219905105829239
148,0.06241059273242951,0.0005,0.06228762205839157
149,0.062412249557971956,0.0005,0.06221002204418182
150,0.062435803298950196,0.0005,0.062230195844173435
151,0.06240768256902695,0.0005,0.06217515431642533
152,0.06243309451818466,0.0005,0.0622110671877861
153,0.062401394851207735,0.0005,0.06217603385448456
154,0.06241324853181839,0.0005,0.06220759485960007
155,0.06241509863853455,0.0005,0.06216218376159668
156,0.06241765995502472,0.0005,0.06223048257827759
157,0.06240832678556442,0.0005,0.0621793695807457
158,0.062411674591302875,0.0005,0.06223739602565766
159,0.06240794824123382,0.0005,0.06220888839960098
160,0.062414851996898654,0.0005,0.062366011726856234
161,0.062406564041376116,0.0005,0.062190983974933625
162,0.062411039633750914,0.0005,0.06223548897504807
163,0.06243220477342606,0.0005,0.062137892746925355
164,0.06241590348482132,0.0005,0.062158754670619966
165,0.06242606026768684,0.0005,0.06244510073661804
166,0.06247397534966469,0.0005,0.062287371289730074
167,0.06246119276285172,0.0005,0.06225743477344513
168,0.06246042092680931,0.0005,0.062227907848358154
169,0.06245400829195976,0.0005,0.062302982568740846
170,0.06245677277803421,0.0005,0.06228913373947144
171,0.062450322638750076,0.0005,0.06222833453416824
172,0.06243780821084976,0.0005,0.062241963529586795
173,0.06244372918367386,0.0005,0.062296953082084654
174,0.06244688005208969,0.0005,0.06228870366811752
175,0.062443593270778655,0.0005,0.062348595452308656
176,0.062434784315824506,0.0005,0.062249857544898986
177,0.06243148510932922,0.0005,0.062240703928470614
178,0.062441825038194655,0.0005,0.06222628006935119
179,0.06244588425278664,0.0005,0.06227454981803894
180,0.06244586173772812,0.0005,0.06225184707641602
181,0.06243709749937058,0.0005,0.062177273404598235
182,0.06243952997207641,0.0005,0.06222311308383942
183,0.06243520644664764,0.0005,0.062254674911499025
184,0.06243435387134552,0.0005,0.062222528529167175
185,0.0624261381316185,0.0005,0.062168067121505736
186,0.062442992099523545,0.0005,0.06227595583200455
187,0.06243105211257934,0.0005,0.06220050687789917
188,0.06243684850931168,0.0005,0.062177512788772586
189,0.06243277113556862,0.0005,0.06221308263540268
190,0.062431915982961654,0.0005,0.06219502897262573
191,0.062462333040237426,0.0005,0.06220531054735184
192,0.06242343515396118,0.0005,0.06227043436765671
193,0.062429987055063245,0.0005,0.06221186139583588
194,0.06242349745154381,0.0005,0.0621538698554039
195,0.0624312401008606,0.0005,0.062298580729961396
196,0.062432040212154385,0.0005,0.06223232443332672
197,0.06242446830511093,0.0005,0.06218632309436798
198,0.06244394579172134,0.0005,0.062250790297985074
199,0.06243088613629341,0.0005,0.06222965149879456
200,0.062106814811229705,1e-04,0.06189722416400909
201,0.062103153375387195,1e-04,0.06191422476768493
202,0.062103959009647366,1e-04,0.06191078976392746
203,0.062105253965854645,1e-04,0.061906083345413206
204,0.062102638684511186,1e-04,0.061925542950630186
205,0.06210319444298744,1e-04,0.06189282188415527
206,0.06210164128065109,1e-04,0.06189285938739777
207,0.06210238123416901,1e-04,0.061903964400291445
208,0.06210229946255684,1e-04,0.06189994343519211
209,0.062100401914119724,1e-04,0.06190884659290314
210,0.062100374500751496,1e-04,0.061942945063114166
211,0.06209793218374252,1e-04,0.06188589462041855
212,0.06210610626935959,1e-04,0.06191400423049927
213,0.06209899152874947,1e-04,0.06188745745420456
214,0.062101023004055025,1e-04,0.061912622272968294
215,0.06209987002015114,1e-04,0.06191423416137695
216,0.06210189311504364,1e-04,0.06188994309902191
217,0.06210165149331093,1e-04,0.061908152866363524
218,0.062098587996959685,1e-04,0.06190840039253235
219,0.062101901004314425,1e-04,0.06190720077753067
220,0.06209995367527008,1e-04,0.061894094371795653
221,0.062096581146717074,1e-04,0.06188581931591034
222,0.062101302231550214,1e-04,0.06191588541269302
223,0.06210255708932877,1e-04,0.061894803977012636
224,0.062097292528152465,1e-04,0.061897936177253726
225,0.06209940322399139,1e-04,0.06192827254533768
226,0.06210350221157074,1e-04,0.06189487401247024
227,0.062106608798503875,1e-04,0.06189857568740845
228,0.062097885887622835,1e-04,0.06189329268932343
229,0.06210548878788948,1e-04,0.06190511063337326
230,0.062098364453315735,1e-04,0.061927259862422944
231,0.06209754713058472,1e-04,0.061897480595111846
232,0.06209801649093628,1e-04,0.061903207659721377
233,0.062101809282302856,1e-04,0.06188951389789581
234,0.06210039793968201,1e-04,0.061888132417201994
235,0.06209653445601463,1e-04,0.061910296607017516
236,0.06209714778184891,1e-04,0.06189166556596756
237,0.06210056642770767,1e-04,0.06190565639734268
238,0.06210160265445709,1e-04,0.061920764029026035
239,0.062100895583629606,1e-04,0.06190019868612289
240,0.06209787820339203,1e-04,0.061909246718883516
241,0.062098091580867765,1e-04,0.06190980895757675
242,0.062097456117868426,1e-04,0.0618809895157814
243,0.06209640999794006,1e-04,0.06188311673402786
244,0.062099678831100465,1e-04,0.06189218410253525
245,0.06209908912062645,1e-04,0.06191499354839325
246,0.062099516911506655,1e-04,0.061897323513031004
247,0.06209469793558121,1e-04,0.06189426888227463
248,0.06210050590276718,1e-04,0.06189062019586563
249,0.06209813969135285,1e-04,0.06189623841047287
250,0.06210570672035217,1e-04,0.06189645245075226
251,0.06209314847707748,1e-04,0.061897928988933565
252,0.06209652503609657,1e-04,0.06188233128786087
253,0.062095272831916806,1e-04,0.06190765635967255
254,0.06210072012066841,1e-04,0.06189849914312363
255,0.062097361509799956,1e-04,0.061897039484977726
256,0.062098035002946854,1e-04,0.06189885722398758
257,0.06209846994161606,1e-04,0.06190448659658432
258,0.06210281353116035,1e-04,0.06191468049287796
259,0.06209952925443649,1e-04,0.061933740413188935
260,0.06209871077299118,1e-04,0.06190369334220886
261,0.06210002952098846,1e-04,0.061921975779533386
262,0.06209637705564499,1e-04,0.06191178425550461
263,0.06210291109800339,1e-04,0.06190828315019607
264,0.06209430146455765,1e-04,0.06190960900783539
265,0.062092396349906924,1e-04,0.06188466844558716
266,0.06205098436355591,5e-05,0.06185268764495849
267,0.06205049595832825,5e-05,0.061849805176258085
268,0.06205110223770142,5e-05,0.061856930375099185
269,0.06204893947720528,5e-05,0.06185966836214066
270,0.06205023549079895,5e-05,0.0618477698802948
271,0.06204939238071441,5e-05,0.06185130866765976
272,0.06205393258690834,5e-05,0.06188646030426025
273,0.062051849492788316,5e-05,0.061849230229854585
274,0.06205151407241821,5e-05,0.06184023636579514
275,0.06204928799986839,5e-05,0.061848357939720155
276,0.06205088516354561,5e-05,0.06187215504646301
277,0.06205734202861786,5e-05,0.06185605022907257
278,0.062053310075998305,5e-05,0.061848635578155516
279,0.06205105742931366,5e-05,0.06187862157821655
280,0.062049765701293946,5e-05,0.06184083187580108
281,0.062052401572465894,5e-05,0.06184826383590698
282,0.06204848912596703,5e-05,0.061855011081695555
283,0.062053732937574387,5e-05,0.061851127576828
284,0.062051718608140946,5e-05,0.06185265344381333
285,0.0620539644742012,5e-05,0.061854063868522643
286,0.06205197799682617,5e-05,0.06186751899719238
287,0.06205356608629227,5e-05,0.06184691590070725
288,0.06205307605862617,5e-05,0.06184554589986801
289,0.062051209154129025,5e-05,0.06184290878772736
290,0.062052958252429964,5e-05,0.0618456661939621
291,0.062055621336698535,5e-05,0.06186477017402649
292,0.06205257183909416,5e-05,0.06184784910678864
293,0.06205140058040619,5e-05,0.06186532241106033
294,0.06205214776992798,5e-05,0.06187261847257614
295,0.06205105696678161,5e-05,0.06185163589715958
296,0.06205067533969879,5e-05,0.06185875651836395
297,0.062051713585853575,5e-05,0.06184924522638321
298,0.06205125020027161,5e-05,0.06185994361639023
299,0.06204939103841781,5e-05,0.061870538008213044
300,0.062011348034143446,1e-05,0.061811659228801726
301,0.06200942907691002,1e-05,0.06181164823770523
302,0.062010025750398635,1e-05,0.06181272790431976
303,0.06201003914117813,1e-05,0.0618175369977951
304,0.06200974634885788,1e-05,0.06181082725524902
305,0.062010429825782774,1e-05,0.06181069839000702
306,0.0620097333741188,1e-05,0.061820330214500424
307,0.06200969130754471,1e-05,0.06181559100151062
308,0.062010637645721435,1e-05,0.06181651747226715
309,0.062011617810726165,1e-05,0.06181830767393112
310,0.06201105125308037,1e-05,0.06181435521841049
311,0.062009061143398284,1e-05,0.06180955144166946
312,0.062011133893728254,1e-05,0.061812718498706815
313,0.062009501576423647,1e-05,0.0618183094739914
314,0.06201101591467857,1e-05,0.06181149253845215
315,0.06201113806128502,1e-05,0.061814185345172884
316,0.06200992376804352,1e-05,0.06181234794855118
317,0.062010315744876865,1e-05,0.061812020766735074
318,0.06201032954573631,1e-05,0.06181981077194214
319,0.06200959206819534,1e-05,0.06182315059900284
320,0.06201023464202881,1e-05,0.06181741368770599
321,0.06200928250432015,1e-05,0.06181392359733581
322,0.06201043991446495,1e-05,0.06181130751371384
323,0.0620104430437088,1e-05,0.061811395275592804
324,0.062010444694757465,1e-05,0.06181484855413437
325,0.06200994338274002,1e-05,0.06181905300617218
326,0.06201121829152107,1e-05,0.06181607574224472
327,0.062009778800010684,1e-05,0.061813632440567014
328,0.06200911888360977,1e-05,0.061817231714725494
329,0.06200936751961708,1e-05,0.061811145186424256
330,0.0620099923825264,1e-05,0.06181174696683884
331,0.062010745488405225,1e-05,0.06181298166513443
332,0.06201059953212738,1e-05,0.061822943723201754
333,0.062009765110015866,1e-05,0.061817495179176334
334,0.06201016258120537,1e-05,0.061814840364456176
335,0.06200941039562225,1e-05,0.06181289423704147
336,0.06200985280990601,1e-05,0.06181415491104126
337,0.06201027477025986,1e-05,0.06181174747943878
338,0.06200889542341232,1e-05,0.06181305104494095
339,0.0620091893029213,1e-05,0.06182184346914291
340,0.0620102921974659,1e-05,0.061813226199150084
341,0.062009535636901855,1e-05,0.06181362388134003
342,0.062010056989192965,1e-05,0.06181105434894562
343,0.06200973317861557,1e-05,0.06181467337608337
344,0.06200957128047943,1e-05,0.06181426099538803
345,0.062010778427124026,1e-05,0.061814828407764436
346,0.06200976916193962,1e-05,0.06181095554828644
347,0.062009479047060015,1e-05,0.06181546499729156
348,0.06201058652162552,1e-05,0.061813691747188565
349,0.06200946969270706,1e-05,0.06181184693574905
350,0.06201009053826332,1e-05,0.061813615214824674
351,0.062009796369075776,1e-05,0.061811878895759585
352,0.06201007601380348,1e-05,0.06181291393041611
353,0.06200916914701462,1e-05,0.06181750408411026
354,0.062011053727865216,1e-05,0.061810558342933655
355,0.06201051723480225,1e-05,0.061812266516685484
356,0.06201066493988037,1e-05,0.06181139067411423
357,0.06200904938936234,1e-05,0.06181303995847702
358,0.06200988601922989,1e-05,0.061812394964694976
359,0.06200986083626747,1e-05,0.06181231836080551
360,0.0620092098402977,1e-05,0.06181355152130127
361,0.062010569250583646,1e-05,0.061823801839351655
362,0.06200949219703674,1e-05,0.061821430826187136
363,0.06201095301866531,1e-05,0.06182688958644867
364,0.06201049422502518,1e-05,0.06182038568258286
365,0.06201051150918007,1e-05,0.06181286489963531
366,0.06201058946371078,1e-05,0.06180977116823196
367,0.06200917669773102,1e-05,0.06181827281713486
368,0.06200938603043556,1e-05,0.06181621239185333
369,0.06200991044998169,1e-05,0.06181553903818131
370,0.06200949697136879,1e-05,0.06181727610826492
371,0.062010682299137115,1e-05,0.06181238811016083
372,0.06200952600836754,1e-05,0.06181164848804474
373,0.06200972863912582,1e-05,0.061816355669498446
374,0.06201003462672233,1e-05,0.06182105907201767
375,0.062009832974672316,1e-05,0.061814513027668
376,0.06201166370630264,1e-05,0.06181253906488419
377,0.06200919497728348,1e-05,0.06181567121744156
378,0.06200882216453552,1e-05,0.061810266160964966
379,0.062010023907423016,1e-05,0.061813744795322416
380,0.06200955530047417,1e-05,0.06182642208337784
381,0.06201071727633476,1e-05,0.0618176983833313
382,0.062009733752012255,1e-05,0.06181046116352081
383,0.062009447660446165,1e-05,0.06182145214080811
384,0.062009493412971496,1e-05,0.061814705061912535
385,0.06200909121513367,1e-05,0.06181249563694
386,0.062010470247268676,1e-05,0.06180971857309341
387,0.0620089715886116,1e-05,0.06181267020702362
388,0.062009641766548156,1e-05,0.06181801198720932
389,0.062010243017673494,1e-05,0.06181580528020859
390,0.062009798295497895,1e-05,0.06181064292192459
391,0.06200960805177689,1e-05,0.06181443099975586
392,0.062009604634046554,1e-05,0.061814567971229556
393,0.06200923117637634,1e-05,0.06181259467601776
394,0.062009094334840774,1e-05,0.061814789831638337
395,0.062010179438591,1e-05,0.06181396731138229
396,0.062010013358592984,1e-05,0.061813758873939514
397,0.06200925631046295,1e-05,0.06181262022256851
398,0.0620098108959198,1e-05,0.061815910029411315
399,0.06200953810334205,1e-05,0.06181138768196106
