epoch,loss,lr,val_loss
0,0.03256029742538929,0.001,0.025954781863093378
1,0.022371284329891206,0.001,0.019497750598192216
2,0.018699066854715347,0.001,0.01751663964688778
3,0.016919291204810144,0.001,0.016103387728333474
4,0.015645115590691566,0.001,0.015296491649746894
5,0.015128026531338691,0.001,0.014875566548109054
6,0.014575061149895192,0.001,0.014600787538290024
7,0.014061687487959862,0.001,0.014041530331969261
8,0.013645480949580669,0.001,0.013508455061912537
9,0.013035896248817444,0.001,0.01313659092783928
10,0.01270947649538517,0.001,0.012513977943360805
11,0.012221784679889679,0.001,0.012164623184502125
12,0.011981717676222324,0.001,0.011997559493780136
13,0.011751776941120624,0.001,0.012264478676021099
14,0.011575134485065938,0.001,0.012084870460629463
15,0.01141448217689991,0.001,0.011448887717723847
16,0.011226407436430455,0.001,0.011570099797844886
17,0.01114656015098095,0.001,0.011321620678901672
18,0.011063860782682896,0.001,0.011195238469541072
19,0.010874904246628285,0.001,0.011293096342682838
20,0.010891696503162384,0.001,0.011207816508412361
21,0.01073481611341238,0.001,0.010960406827926636
22,0.01061274502813816,0.001,0.011052375946938992
23,0.010454447057843208,0.001,0.010709941121935844
24,0.010376520609855652,0.001,0.01114011359512806
25,0.010288417082428933,0.001,0.010861981549859047
26,0.010237516171336175,0.001,0.010837570548057555
27,0.010096033480763435,0.001,0.010500597621500492
28,0.010054838983416556,0.001,0.010830204463005066
29,0.009958003106117249,0.001,0.010329691874980926
30,0.009852026594579219,0.001,0.010392206463217736
31,0.009790629468262195,0.001,0.010408794346451759
32,0.00975060816347599,0.001,0.010094712662696839
33,0.009635077009797096,0.001,0.01013185052871704
34,0.009567652570605278,0.001,0.009984664836525917
35,0.00956388476639986,0.001,0.009967750491201877
36,0.00945559309452772,0.001,0.010182956518232823
37,0.009416116966605187,0.001,0.010172362473607064
38,0.009413616015911102,0.001,0.00999992155134678
39,0.009324262420833111,0.001,0.009947827984392643
40,0.009281510669589042,0.001,0.009909713889658452
41,0.009238792032599448,0.001,0.009825549191236497
42,0.009167523370087147,0.001,0.009693885743618012
43,0.009115475515723228,0.001,0.009653120152652264
44,0.009059573588967324,0.001,0.009650693060457707
45,0.00900678093135357,0.001,0.009547105869650841
46,0.008945907196104526,0.001,0.009561573542654514
47,0.008955511068701743,0.001,0.009655966944992543
48,0.008873115942180156,0.001,0.009546780617535115
49,0.008857575640678406,0.001,0.009492908753454685
50,0.008798171951472759,0.001,0.009526917457580567
51,0.008774788963198662,0.001,0.009410857799649239
52,0.008767219793200493,0.001,0.009479938116669655
53,0.008756863020658492,0.001,0.009424777483940125
54,0.008697458992600441,0.001,0.00967702333033085
55,0.008667334352135658,0.001,0.009376579830050469
56,0.00861875898361206,0.001,0.009310276125371456
57,0.008582916265428066,0.001,0.009440378692746162
58,0.008569602584540844,0.001,0.009407048052549362
59,0.008517124919593335,0.001,0.009338802924752235
60,0.00848092760771513,0.001,0.00926174645125866
61,0.00844134585469961,0.001,0.009230208663642407
62,0.00844287608921528,0.001,0.009383961516618728
63,0.008387512609660626,0.001,0.009215805593132972
64,0.008337908475100995,0.001,0.009106988798081875
65,0.008328762711882591,0.001,0.009162903290987014
66,0.00829958164215088,0.001,0.009041003455221653
67,0.008283142598867416,0.001,0.009306532575190067
68,0.00827131179869175,0.001,0.009198880770802498
69,0.008231029450297356,0.001,0.009156273674964905
70,0.008204286576509475,0.001,0.009104645076394082
71,0.008184455094337463,0.001,0.009124436061084271
72,0.008179576832056045,0.001,0.009069550687074662
73,0.008117910251021385,0.001,0.00903082931637764
74,0.008124093564152718,0.001,0.009232311117649078
75,0.008109496574997902,0.001,0.009211308601498604
76,0.008111547875404359,0.001,0.009024978932738304
77,0.008057225605845451,0.001,0.009001382386684418
78,0.008041655444800854,0.001,0.009155454060435294
79,0.008016599639058113,0.001,0.008965508964657783
80,0.008006474679410458,0.001,0.009292885106801986
81,0.007986734637320041,0.001,0.009062616054713726
82,0.00797588420689106,0.001,0.008901100921630859
83,0.007960385439097882,0.001,0.008918502172827721
84,0.007977789974510669,0.001,0.008913633191585542
85,0.007912400058507919,0.001,0.009518851527571677
86,0.007926010381877423,0.001,0.009001540364325046
87,0.007911208789348602,0.001,0.008916486206650734
88,0.007900826057344676,0.001,0.009080204311013222
89,0.007886683063209056,0.001,0.009057169096171856
90,0.007890579798519612,0.001,0.008929240956902503
91,0.007872433720529079,0.001,0.008988616859912873
92,0.007842976073920727,0.001,0.00893472430408001
93,0.007861495717465878,0.001,0.00894422037601471
94,0.007846756269931794,0.001,0.008923779195547104
95,0.007834931154102087,0.001,0.008957213382422924
96,0.007828527322858572,0.001,0.009091494488716125
97,0.00778951032936573,0.001,0.009204425171017647
98,0.007802716991007328,0.001,0.009017547652125358
99,0.007759659855365753,0.001,0.008863497230410576
100,0.007750533272325993,0.001,0.008952917478978634
101,0.0077650589260458945,0.001,0.009013019022345543
102,0.007729909890592098,0.001,0.008988815660774708
103,0.00772627728998661,0.001,0.009250532640516758
104,0.0077253166905045505,0.001,0.008964649178087711
105,0.007691886471509934,0.001,0.008823886093497277
106,0.0076984784317016604,0.001,0.008898063692450523
107,0.007680329986214637,0.001,0.008894431342184544
108,0.007643530144393444,0.001,0.008849714893102646
109,0.007664120191633701,0.001,0.008929477751255036
110,0.007636006979942322,0.001,0.008927203366160394
111,0.007635031098127365,0.001,0.008818245229125023
112,0.007610609394311905,0.001,0.009159631626307964
113,0.007619404471218586,0.001,0.008803707367181777
114,0.007587665395140648,0.001,0.008821256807446479
115,0.007601923887431621,0.001,0.00888729675412178
116,0.007581819253861904,0.001,0.008758102236688136
117,0.007550384763777256,0.001,0.008822673454880714
118,0.007563813842833042,0.001,0.008784901931881904
119,0.007516523831486702,0.001,0.008801220148801804
120,0.007538531060069799,0.001,0.008811753682792186
121,0.007533605299144984,0.001,0.008775507327914238
122,0.007508464200347662,0.001,0.008775937782227993
123,0.007531008623838425,0.001,0.008826295132935048
124,0.007479492029100657,0.001,0.008779634739458562
125,0.007468803357481957,0.001,0.008846227672696114
126,0.007470905207246542,0.001,0.008792638011276723
127,0.0074959587928652765,0.001,0.008758849729597569
128,0.007476870293319226,0.001,0.008774139937758446
129,0.007462841818034649,0.001,0.008805115032196045
130,0.007435526481568813,0.001,0.008813203543424606
131,0.0074535517060756685,0.001,0.008887888768315316
132,0.00742993028908968,0.001,0.008884714578092099
133,0.007075799750685692,0.0005,0.00859750592559576
134,0.007037990643680095,0.0005,0.008625909611582756
135,0.007039704142808914,0.0005,0.008726175104081631
136,0.007046812564432621,0.0005,0.008712940618395806
137,0.0070474725058674815,0.0005,0.008774872559309005
138,0.0070459557703137395,0.0005,0.008719493840634822
139,0.007042395526021719,0.0005,0.00872845889031887
140,0.007030043478906155,0.0005,0.008726447324454784
141,0.007025586510002613,0.0005,0.008723082554340362
142,0.007020626869052649,0.0005,0.008720426879823207
143,0.007016951787620783,0.0005,0.008731810852885246
144,0.007004049204438925,0.0005,0.00875016537308693
145,0.0069989033338427546,0.0005,0.00883440674841404
146,0.006993735752403736,0.0005,0.008704455557465553
147,0.006986914728581905,0.0005,0.00870411238670349
148,0.006977565346807242,0.0005,0.008717822763323784
149,0.0069660323293507095,0.0005,0.008769697692990302
150,0.0069670770952105525,0.0005,0.008720518355071545
151,0.006954233654588461,0.0005,0.00871636793911457
152,0.006955125817060471,0.0005,0.008722007673978805
153,0.006942271841615439,0.0005,0.00872968513071537
154,0.006944086674302816,0.0005,0.008724591583013535
155,0.006938781339079141,0.0005,0.00870966060757637
156,0.006931199268251658,0.0005,0.008719200696051121
157,0.00692141422137618,0.0005,0.008749876523017883
158,0.0069232198807597164,0.0005,0.008736076948046683
159,0.006914903470426798,0.0005,0.008766851243376731
160,0.006911846928447485,0.0005,0.008723931637406349
161,0.006910511314719915,0.0005,0.008745905295014381
162,0.006900593357980251,0.0005,0.00873914791047573
163,0.006900120924413204,0.0005,0.008757900024950504
164,0.006897936630100012,0.0005,0.008795908373594284
165,0.006886186852455139,0.0005,0.008790027563273907
166,0.006889641198962927,0.0005,0.008755225485563279
167,0.0068800130774080755,0.0005,0.0088049693480134
168,0.006881105317920446,0.0005,0.008740071138739586
169,0.006870107789337635,0.0005,0.008810119408369064
170,0.006874872017800808,0.0005,0.00880748835504055
171,0.00686193513661623,0.0005,0.00880675488114357
172,0.0068607231256365775,0.0005,0.008752721866965294
173,0.006857870697081089,0.0005,0.008770280084013938
174,0.006860044612884522,0.0005,0.008839198049902916
175,0.00685025535017252,0.0005,0.008867275373637675
176,0.0068393480131030086,0.0005,0.008797367930412293
177,0.0068430671080946925,0.0005,0.008800911711156368
178,0.006850170697122813,0.0005,0.00880899053812027
179,0.006821749794781208,0.0005,0.00877818433046341
180,0.006832086619436741,0.0005,0.008825221905112266
181,0.0068286299729347225,0.0005,0.008816409358382226
182,0.0068263724207878115,0.0005,0.008758254013955594
183,0.006807049559503794,0.0005,0.008815008094906807
184,0.006819829392433166,0.0005,0.008865138390660285
185,0.006807183162271977,0.0005,0.008822859019041061
186,0.006810676235854626,0.0005,0.008778938642144202
187,0.006804408117383719,0.0005,0.008787224008142948
188,0.006802063914835453,0.0005,0.008835813957452775
189,0.006797251826226711,0.0005,0.008768783774971962
190,0.006790423042476177,0.0005,0.008732471904158592
191,0.006784934903532267,0.0005,0.008772772042453289
192,0.006785783625990152,0.0005,0.00878933383524418
193,0.006782117534726858,0.0005,0.00881153447329998
194,0.006786607941538096,0.0005,0.008809190493822098
195,0.006775649453699589,0.0005,0.008809332275390625
196,0.006769860623031854,0.0005,0.008768257673084735
197,0.0067712693747878075,0.0005,0.008804506477713584
198,0.006758334518820047,0.0005,0.008790060812234879
199,0.006756860204935074,0.0005,0.00879152953773737
200,0.0065176803182065484,1e-04,0.008761850184202195
201,0.006486100223958492,1e-04,0.008767883764207363
202,0.006479346358627081,1e-04,0.008763251639902592
203,0.006476404863446951,1e-04,0.00878933265209198
204,0.0064738864052295685,1e-04,0.00881121032834053
205,0.006472292263507843,1e-04,0.008799949538707733
206,0.006469574970155954,1e-04,0.008794592168927192
207,0.0064675566077232365,1e-04,0.008788173466920852
208,0.006465998518615961,1e-04,0.00882576910853386
209,0.0064637379398942,1e-04,0.008806458964943887
210,0.006460602852553129,1e-04,0.008803189578652382
211,0.006458135781139135,1e-04,0.008838858038187026
212,0.006456794796139002,1e-04,0.008849438908696175
213,0.00645433467388153,1e-04,0.008822740426659583
214,0.0064522834250330926,1e-04,0.008820578104257584
215,0.006450996333658695,1e-04,0.008815319289267064
216,0.006448050167858601,1e-04,0.008853315384685994
217,0.006445689530521631,1e-04,0.008851003083586693
218,0.006443944143205881,1e-04,0.008831670090556144
219,0.006440807630866766,1e-04,0.008857561258971691
220,0.006440684469044208,1e-04,0.008838128460943699
221,0.006439072470515966,1e-04,0.008858502167463303
222,0.0064362721864879135,1e-04,0.008865762010216712
223,0.0064355135454237464,1e-04,0.00887146470695734
224,0.006433141921758652,1e-04,0.008885369916260242
225,0.006431891351640224,1e-04,0.008854457449913025
226,0.0064299659749865535,1e-04,0.0088668885409832
227,0.006428907456696034,1e-04,0.00886557959318161
228,0.006427599062621594,1e-04,0.008852290311455726
229,0.006424641946852207,1e-04,0.008882509583234787
230,0.006424212377220392,1e-04,0.008874453289806843
231,0.006421751956492663,1e-04,0.008858743247389793
232,0.0064206317523121835,1e-04,0.00887077413201332
233,0.006418541115522385,1e-04,0.008856679135560989
234,0.006416196552962065,1e-04,0.008845214784145355
235,0.006416594513952732,1e-04,0.008867579814791679
236,0.006414126711338759,1e-04,0.00889552319943905
237,0.006413584488630295,1e-04,0.008874819077551365
238,0.0064119502389431,1e-04,0.008875162975490094
239,0.006409254021793604,1e-04,0.008876375448703766
240,0.006407685483843088,1e-04,0.008889296194911004
241,0.006407647612094879,1e-04,0.008875657549500465
242,0.006405285664200783,1e-04,0.008900645557045936
243,0.006403927930891513,1e-04,0.008885053750872613
244,0.006402979547828436,1e-04,0.008882067622244359
245,0.006401152639091015,1e-04,0.008893975865840911
246,0.006399263194650412,1e-04,0.0089077262327075
247,0.006398877607882023,1e-04,0.008890453872084618
248,0.006398226343393326,1e-04,0.008898783639073373
249,0.00639639736905694,1e-04,0.008900941374897957
250,0.00639519813656807,1e-04,0.008907565683126449
251,0.0063944738760590555,1e-04,0.00890573883652687
252,0.006392340413928032,1e-04,0.008889196902513503
253,0.006391133118569851,1e-04,0.008920165428519249
254,0.00638918052315712,1e-04,0.008910221615433693
255,0.006389458202421665,1e-04,0.008918625703454018
256,0.006387579355239868,1e-04,0.008906648150086403
257,0.006385547966659069,1e-04,0.008908758348226548
258,0.006384665585160256,1e-04,0.008905685371160507
259,0.006383346541970968,1e-04,0.008916274654865265
260,0.006382304258644581,1e-04,0.008923359376192094
261,0.006381443252563477,1e-04,0.008890749090909958
262,0.006379685086160898,1e-04,0.008920132863521576
263,0.006379142203181982,1e-04,0.008919783850014209
264,0.0063790468227863314,1e-04,0.00892371509373188
265,0.0063762865069508555,1e-04,0.008907323634624481
266,0.006338983043730259,5e-05,0.008927763035893441
267,0.0063364877638220785,5e-05,0.008935586212575435
268,0.006336555365175009,5e-05,0.008937493795156478
269,0.006336118863672018,5e-05,0.008926469936966896
270,0.006335124845355749,5e-05,0.008925204947590828
271,0.006334449516832829,5e-05,0.00893802796602249
272,0.006333811228275299,5e-05,0.008939662262797356
273,0.006333598496615887,5e-05,0.00892530589401722
274,0.006332673504501582,5e-05,0.008940448339283466
275,0.0063320407938957214,5e-05,0.008933153486251831
276,0.00633151683717966,5e-05,0.00893824044317007
277,0.006330869994163513,5e-05,0.008942002257704735
278,0.006329876582622528,5e-05,0.008939114247262478
279,0.006329084831178188,5e-05,0.00894338363558054
280,0.006328695191442966,5e-05,0.008942936061322689
281,0.006327709369659424,5e-05,0.008940132381021976
282,0.00632724101871252,5e-05,0.008949606361985206
283,0.006326693514734506,5e-05,0.008945755794644355
284,0.006325865782350302,5e-05,0.008946242161095143
285,0.006325094876289367,5e-05,0.00893367093205452
286,0.0063246097469329835,5e-05,0.008954917535185814
287,0.006324211639165878,5e-05,0.00893712970763445
288,0.006323328885287046,5e-05,0.008950910222530365
289,0.006322572469562292,5e-05,0.008961935390532017
290,0.006321745070368052,5e-05,0.008947247532010079
291,0.00632121274843812,5e-05,0.008955771316587926
292,0.006320567515939474,5e-05,0.008947704628109931
293,0.006320435227155685,5e-05,0.008944658550620078
294,0.00631963785469532,5e-05,0.008963406014442444
295,0.0063186244617402555,5e-05,0.008960746975243091
296,0.00631841840043664,5e-05,0.008950841018557549
297,0.006317556546628475,5e-05,0.008955416294932366
298,0.006316611766368151,5e-05,0.008956760582327843
299,0.006316875677257776,5e-05,0.008962584127485752
300,0.0062871379256248475,1e-05,0.008965923562645911
301,0.006284650821387768,1e-05,0.008962591530382633
302,0.006284239127486944,1e-05,0.008968184016644955
303,0.006284040285646915,1e-05,0.008960753807425498
304,0.0062838597737252715,1e-05,0.008969154959917068
305,0.006283712917268276,1e-05,0.008966263879835606
306,0.006283396044820547,1e-05,0.008972925662994385
307,0.006283294093310833,1e-05,0.00896665775924921
308,0.006283107137978077,1e-05,0.008972818467020988
309,0.006282848633378744,1e-05,0.008973537826538086
310,0.006282647733092308,1e-05,0.008970141381025315
311,0.006282490757256746,1e-05,0.008966754938662053
312,0.006282279776483774,1e-05,0.008976079499721528
313,0.006282176354080439,1e-05,0.00897287796139717
314,0.006282058240175247,1e-05,0.008972064837813378
315,0.006281819968372584,1e-05,0.008969553463160992
316,0.006281501504331827,1e-05,0.008972655346989631
317,0.0062813659991323946,1e-05,0.008971880915760995
318,0.006281261845678091,1e-05,0.008974101686477661
319,0.006281025706827641,1e-05,0.008971873784065247
320,0.006280754922330379,1e-05,0.008976509009301662
321,0.006280717524588108,1e-05,0.008974306866526604
322,0.006280540817677975,1e-05,0.008978574712574482
323,0.0062802888801693916,1e-05,0.008971828100085259
324,0.006280250042527914,1e-05,0.008973860225081443
325,0.0062799100434780125,1e-05,0.008975933207571507
326,0.006279863091558218,1e-05,0.008979297687113285
327,0.00627970722079277,1e-05,0.008971618917584419
328,0.006279559502452612,1e-05,0.008978717209398747
329,0.006279434765875339,1e-05,0.00898165817707777
330,0.006279136761724949,1e-05,0.008977964773774147
331,0.006279101076871157,1e-05,0.008973308211565018
332,0.0062789285272359845,1e-05,0.00897821349054575
333,0.006278739473670721,1e-05,0.008974315658211707
334,0.006278638253062963,1e-05,0.00897829746901989
335,0.006278344581127167,1e-05,0.008978138267993927
336,0.006278234344273805,1e-05,0.008973965474963189
337,0.0062781009875237945,1e-05,0.008978178745508193
338,0.006277932118326426,1e-05,0.008976842030882835
339,0.0062776583644747735,1e-05,0.008985127875208854
340,0.0062778197491168974,1e-05,0.008976706683635712
341,0.006277542052567005,1e-05,0.008979098132252693
342,0.00627740435257554,1e-05,0.008979211394488812
343,0.006277257315516472,1e-05,0.008978513231873512
344,0.006277054544389248,1e-05,0.00897841670513153
345,0.006276897209882736,1e-05,0.008979766085743903
346,0.00627685270935297,1e-05,0.008980648423731327
347,0.0062766574470698834,1e-05,0.008985576701164245
348,0.006276436262130737,1e-05,0.008976624789834022
349,0.006276301637589931,1e-05,0.00897416231483221
350,0.00627610842615366,1e-05,0.008980637419223786
351,0.006276204640567303,1e-05,0.008978006568551064
352,0.006276042606532574,1e-05,0.008982526774704456
353,0.00627581106454134,1e-05,0.008978221562504768
354,0.006275544052422047,1e-05,0.008975299425423145
355,0.006275493610948324,1e-05,0.008986197274923325
356,0.006275392000824213,1e-05,0.008985142987966538
357,0.006275272542387247,1e-05,0.008980559781193734
358,0.006275039070546627,1e-05,0.008984904325008392
359,0.0062749287213385106,1e-05,0.008983910715579987
360,0.0062748134270310405,1e-05,0.00898073205947876
361,0.006274619608223438,1e-05,0.008983684010803699
362,0.006274632865488529,1e-05,0.008988270887732505
363,0.006274386379569769,1e-05,0.008981344270706177
364,0.006274246909320354,1e-05,0.008978748351335525
365,0.006274076691716909,1e-05,0.008982223118841648
366,0.006273975769281387,1e-05,0.00898903905749321
367,0.006273858261406422,1e-05,0.008990414169430732
368,0.006273666887283326,1e-05,0.008986370098590851
369,0.006273676474392414,1e-05,0.008984969961643219
370,0.006273475203216076,1e-05,0.00899019887894392
371,0.00627332043170929,1e-05,0.008992343100905418
372,0.006273087208271026,1e-05,0.008986059039831162
373,0.006273096545636654,1e-05,0.008986284910142422
374,0.006272876964956522,1e-05,0.008985282331705093
375,0.006272785587012768,1e-05,0.008986775606870652
376,0.0062726087778806686,1e-05,0.008984203186631203
377,0.006272585844099522,1e-05,0.00898815630376339
378,0.006272365687340498,1e-05,0.008994547444581986
379,0.00627233364969492,1e-05,0.008985160893201827
380,0.006272103352546692,1e-05,0.008990279892086983
381,0.006272076232135296,1e-05,0.008992026168107986
382,0.006271806694120169,1e-05,0.008984258864820004
383,0.006271740409135819,1e-05,0.00898778446316719
384,0.006271689158976078,1e-05,0.008987825813889504
385,0.006271455666720867,1e-05,0.008989434203505516
386,0.006271402041614056,1e-05,0.008994306617975236
387,0.00627119299724698,1e-05,0.00898772380053997
388,0.006270946710258722,1e-05,0.008990563879907132
389,0.006270953889936209,1e-05,0.008988584583997726
390,0.006270838528573513,1e-05,0.008996396678686142
391,0.006270660737901926,1e-05,0.008990827322006225
392,0.006270522226989269,1e-05,0.00899193728864193
393,0.006270552058517933,1e-05,0.008990956445038318
394,0.006270405958890915,1e-05,0.008993577608466148
395,0.006270227329581976,1e-05,0.008991335561871528
396,0.006270094878375531,1e-05,0.008991008201241494
397,0.006269982124269009,1e-05,0.008987920738756656
398,0.0062697833386063575,1e-05,0.008988360369205474
399,0.006269763528108597,1e-05,0.008990403138101101
