{
    "learning_rate": "0.001",
    "batch_size": "128",
    "epochs": "400",
    "img_shape": "32",
    "num_classes": "10",
    "data_augmentation": "1",
    "num_filters": "32",
    "deep": "False",
    "sparse": "True",
    "model_dir": "./logs/2"
}